{
    "guest":{
        "signup":{
            "status": "success",
            "message": "You are now trying to sign in",
            "all_data": [
                {"name": "this is teh first"}
            ]
    
        }
    }
}